{
    "amount":5000,
    "first_name":"LINDA",
    "last_name":"DAVIS",
    "middle_initial":"V",
    "suffix":"",
    "home_address":"9427 S SAINT LOUIS AVE",
    "city":"EVERGREEN PK",
    "state":"IL",
    "state_of_residence":"IL",
    "zip_code":"60805",
    "employment_status":7,
    "yearly_income":140000.0,
    "home_phone": "4155551234",
    "mobile_phone": "4156454543",
    "date_of_birth":"1/1/1969",
    "email":"loislane@dailyplanet.com",
    "password":"Password23",
    "credit_report_authorization":false,
    "privacy_policies":false,
    "prosper_acceptance_code":"",
    "loan_purpose":2,
    "credit_grade":0,
    "ssn":"",
    "referral_code":"",
    "is_read_only":true
}