{
    "email": "test@test.com",
    "first_name": "Troy",
    "access_token": "ACCESS321",
    "status": {
        "validation_errors": [],
        "errors": [{"code":-1,"message":"Invalid email token"},{"code":24,"message":"Invalid email token"}]
    }
}